{
    "price": {
        "list_replacement": [
            {
                "item": "Масло раздаточной коробки",
                "produce": [0, 0, 0, 1, 0]
            },
            {
                "item": "Масло переднего и заднего дифференциалов",
                "produce": [0, 1, 0, 1, 1]
            },
            {
                "item": "Масло в механической коробки передач",
                "produce": [0, 0, 0, 1, 0]
            },
            {
                "item": "Свечи зажигания",
                "produce": [0, 1, 0, 1, 1]
            },
            {
                "item": "Охлаждающая жидкость",
                "produce": [2, 2, 2, 2, 1]
            },
            {
                "item": "Фильтрующий элемент воздухоочистителя двигателя.",
                "produce": [1, 1, 1, 1, 1]
            },
            {
                "item": "Топливный фильтр",
                "produce": [0, 1, 0, 1, 1]
            },
            {
                "item": "Масло и масляной фильтр в двигателе (или раз в год) ",
                "produce": [1, 1, 1, 1, 1]
            },
            {
                "item": "Жидкость тормозная/сцепления (или раз в два года)",
                "produce": [0, 1, 0, 1, 1]
            },
            {
                "item": "Салонный фильтр (если установлен)",
                "produce": [2, 2, 2, 2, 2]
            }
        ],
        "norm_hour": ["2,5", "3,7", "5,7", "5,7", "4,2"],
        "price_work": [2300, 3700, 5700, 5700, 4200],
        "price_repair_part":  [4874, 12289, 4874, 19575, 14341],
        "total": [7174, 15989, 10574, 25275, 18541]
    }
}