{
    "price": {
        "list_replacement": [
            {
                "item": "Масло раздаточной коробки",
                "produce": [0, 0, 0, 1, 0]
            },
            {
                "item": "Масло переднего и заднего дифференциалов",
                "produce": [0, 0, 1, 1, 1]
            },
            {
                "item": "Масло автоматической коробки передач",
                "produce": [0, 0, 0, 1, 0]
            },
            {
                "item": "Охлаждающая жидкость",
                "produce": [2, 2, 2, 1, 2]
            },
            {
                "item": "Фильтрующий элемент воздухоочистителя двигателя.",
                "produce": [1, 1, 1, 1, 1]
            },
            {
                "item": "Топливный фильтр",
                "produce": [0, 1, 0, 1, 0]
            },
            {
                "item": "Масло и масляной фильтр в двигателе (или раз в год) ",
                "produce": [1, 1, 1, 1, 1]
            },
            {
                "item": "Жидкость тормозная/сцепления (или раз в два года)",
                "produce": [2, 1, 2, 1, 2]
            },
            {
                "item": "Салонный фильтр (если установлен)",
                "produce": [2, 2, 2, 2, 2]
            }
        ],
        "norm_hour": ["2,6", "3,7", "3,7", "5,5", "4,2"],
        "price_work": [2600, 3700, 3700, 5500, 4200],
        "price_repair_part":  [5078, 6289, 8398, 17006, ""],
        "total": [7678, 9989, 12098, 22506, 4200]
    }
}