{
    "price": {
        "list_replacement": [
            {
                "item": "Масло раздаточной коробки",
                "produce": [0, 0, 0, 1, 0]
            },
            {
                "item": "Масло переднего и заднего дифференциалов",
                "produce": [0, 0, 1, 1, 1]
            },
            {
                "item": "Масло в механической коробки передач",
                "produce": [0, 0, 0, 1, 0]
            },
            {
                "item": "Охлаждающая жидкость",
                "produce": [2, 2, 2, 1, 2]
            },
            {
                "item": "Фильтрующий элемент воздухоочистителя двигателя.",
                "produce": [1, 1, 1, 1, 1]
            },
            {
                "item": "Топливный фильтр",
                "produce": [0, 1, 0, 1, 0]
            },
            {
                "item": "Масло и масляной фильтр в двигателе (или раз в год) ",
                "produce": [1, 1, 1, 1, 1]
            },
            {
                "item": "Жидкость тормозная/сцепления (или раз в два года)",
                "produce": [0, 1, 0, 1, 0]
            },
            {
                "item": "Салонный фильтр (если установлен)",
                "produce": [2, 2, 2, 2, 2]
            }
        ],
        "norm_hour": ["2,3", "3,2", "3,7", "5,3", "4,2"],
        "price_work": [2300, 3200, 3700, 5300, 4200],
        "price_repair_part": [5134, 8096, 8747, 16538, 8747],
        "total": [7434, 11296, 12447, 21838, 12947]
    }
}
