{
    "price": {
        "list_replacement": [
            {
                "item": "Масло раздаточной коробки",
                "produce": [0, 0, 0, 0, 0]
            },
            {
                "item": "Масло переднего и заднего дифференциалов",
                "produce": [0, 1, 0, 1, 0]
            },
            {
                "item": "Масло автоматической коробки передач",
                "produce": [0, 0, 0, 1, 0]
            },
            {
                "item": "Свечи зажигания",
                "produce": [0, 1, 0, 1, 1]
            },
            {
                "item": "Охлаждающая жидкость",
                "produce": [2, 2, 2, 2, 1]
            },
            {
                "item": "Фильтрующий элемент воздухоочистителя двигателя.",
                "produce": [1, 1, 1, 1, 1]
            },
            {
                "item": "Топливный фильтр",
                "produce": [0, 1, 0, 1, 1]
            },
            {
                "item": "Масло и масляной фильтр в двигателе (или раз в год) ",
                "produce": [1, 1, 1, 1, 1]
            },
            {
                "item": "Жидкость тормозная/сцепления (или раз в два года)",
                "produce": [2, 1, 2, 1, 1]
            },
            {
                "item": "Салонный фильтр (если установлен)",
                "produce": [2, 2, 2, 2, 2]
            }
        ],
        "norm_hour": ["2,5", "4,2", "2,5", "5", "5"],
        "price_work": [2500, 4200, 2500, 5000, 5000],
        "price_repair_part":  [3446, 11249, 3446, 14894, 12257],
        "total": [5946, 15449, 5946, 19894, 17257]
    }
}