{
    "price": {
        "list_replacement": [
            {
                "item": "Масло раздаточной коробки",
                "produce": [0, 0, 0, 0, 0]
            },
            {
                "item": "Масло переднего и заднего дифференциалов",
                "produce": [0, 0, 0, 0, 0]
            },
            {
                "item": "Масло автоматической коробки передач",
                "produce": [0, 0, 0, 1, 0]
            },
            {
                "item": "Охлаждающая жидкость",
                "produce": [2, 2, 2, 1, 2]
            },
            {
                "item": "Фильтрующий элемент воздухоочистителя двигателя.",
                "produce": [1, 1, 1, 1, 1]
            },
            {
                "item": "Топливный фильтр",
                "produce": [0, 1, 0, 1, 0]
            },
            {
                "item": "Масло и масляной фильтр в двигателе (или раз в год) ",
                "produce": [1, 1, 1, 1, 1]
            },
            {
                "item": "Жидкость тормозная/сцепления (или раз в два года)",
                "produce": [2, 1, 2, 1, 2]
            },
            {
                "item": "Салонный фильтр (если установлен)",
                "produce": [2, 2, 2, 2, 2]
            }
        ],
        "norm_hour": ["2,6", "3,7", "3,3", "5,3", "3,3"],
        "price_work": [2600, 3700, 2600, 4600, 2600],
        "price_repair_part":  [5006, 6217, 5006, 13311, 5006],
        "total": [7606, 9917, 7606, 17911, 7606]
    }
}