{
    "price": {
        "list_replacement": [
            {
                "item": "Масло раздаточной коробки",
                "produce": [0, 0, 0, 1, 0]
            },
            {
                "item": "Масло переднего и заднего дифференциалов",
                "produce": [0, 1, 0, 1, 1]
            },
            {
                "item": "Масло автоматической коробки передач",
                "produce": [0, 0, 0, 1, 0]
            },
            {
                "item": "Свечи зажигания",
                "produce": [0, 1, 0, 1, 1]
            },
            {
                "item": "Охлаждающая жидкость",
                "produce": [2, 2, 2, 2, 1]
            },
            {
                "item": "Фильтрующий элемент воздухоочистителя двигателя.",
                "produce": [1, 1, 1, 1, 1]
            },
            {
                "item": "Топливный фильтр",
                "produce": [0, 1, 0, 1, 1]
            },
            {
                "item": "Масло и масляной фильтр в двигателе (или раз в год) ",
                "produce": [1, 1, 1, 1, 1]
            },
            {
                "item": "Жидкость тормозная/сцепления (или раз в два года)",
                "produce": [0, 1, 0, 1, 1]
            },
            {
                "item": "Салонный фильтр (если установлен)",
                "produce": [2, 2, 2, 2, 2]
            }
        ],
        "norm_hour": ["2,5", "3,7", "2,5", "5,7", "3,9"],
        "price_work": [2500, 3700, 5700, 5700, 3900],
        "price_repair_part": [6053, 13751, 6053, 22775, 16701],
        "total": [8553, 17451, 11753, 28475, 20601]
    }
}