{
    "price": {
        "list_replacement": [
            {
                "item": "Масло раздаточной коробки",
                "produce": [0, 0, 0, 1, 0]
            },
            {
                "item": "Масло переднего и заднего дифференциалов",
                "produce": [0, 0, 1, 1, 1]
            },
            {
                "item": "Масло автоматической коробки передач",
                "produce": [0, 0, 0, 1, 0]
            },
            {
                "item": "Охлаждающая жидкость",
                "produce": [2, 2, 2, 1, 2]
            },
            {
                "item": "Фильтрующий элемент воздухоочистителя двигателя.",
                "produce": [1, 1, 1, 1, 1]
            },
            {
                "item": "Топливный фильтр",
                "produce": [0, 1, 0, 1, 0]
            },
            {
                "item": "Масло и масляной фильтр в двигателе (или раз в год) ",
                "produce": [1, 1, 1, 1, 1]
            },
            {
                "item": "Жидкость тормозная/сцепления (или раз в два года)",
                "produce": [2, 1, 2, 1, 2]
            },
            {
                "item": "Салонный фильтр (если установлен)",
                "produce": [2, 2, 2, 2, 2]
            }
        ],
        "norm_hour": ["2,3", "3,7", "3,6", "5,3", "4,1"],
        "price_work": [2600, 3700, 3600, 5300, 4100],
        "price_repair_part": [5431, 8393, 8849, 18124, 8849],
        "total": [8031, 12093, 12449, 23424, 12949]
    }
}