{
  "service": "Система охлаждения",
  "list": [
    {
      "work": "Термостат замена",
      "price": "600"
    },
    {
      "work": "Водяной насос (помпа замена)",
      "price": "1800"
    },
    {
      "work": "Вискомуфта замена",
      "price": "600"
    },
    {
      "work": "Радиатор системы охлаждения замена",
      "price": "1200"
    },
    {
      "work": "Патрубок системы охлаждения замена",
      "price": "600"
    }
  ]
}