{
  "service": "Ходовая часть",
  "list": [
    {
      "work": "Шаровая опора переднего нижнего рычага замена",
      "price": "600"
    },
    {
      "work": "Рулевой наконечник замена",
      "price": "400"
    },
    {
      "work": "Рулевая тяга замена",
      "price": "1200"
    },
    {
      "work": "Рычаг передней подвески замена",
      "price": "960"
    },
    {
      "work": "Втулки стабилизатора замена",
      "price": "700"
    },
    {
      "work": "Стойка стабилизатора замена",
      "price": "480"
    },
    {
      "work": "Амортизатор подвески замена",
      "price": "1200"
    },
    {
      "work": "Пружина подвески замена",
      "price": "1300"
    },
    {
      "work": "Подшипник ступицы замена",
      "price": "1900"
    },
    {
      "work": "Подшипник полуоси замена",
      "price": "3600"
    },
    {
      "work": "Муфта подключения переднего моста (хаб) замена",
      "price": "1680"
    }
  ]
}